<?xml version="1.0" encoding="utf-8"?>
<!DOCTYPE svg PUBLIC "-//W3C//DTD SVG 1.1//EN" "http://www.w3.org/Graphics/SVG/1.1/DTD/svg11.dtd">
<svg version="1.1" id="Capa_3_1_" xmlns="http://www.w3.org/2000/svg" xmlns:xlink="http://www.w3.org/1999/xlink" x="0px" y="0px"
	 width="50px" height="50px" viewBox="0 0 50 50" enable-background="new 0 0 50 50" xml:space="preserve">
<g>
	<circle fill="#FFFFFF" cx="19.639" cy="37.64" r="2.388"/>
	<circle fill="#FFFFFF" cx="33.964" cy="37.64" r="2.388"/>
	<path fill="#FFFFFF" d="M43.237,6.763c-0.684-0.684-1.791-0.684-2.475,0l-7.797,7.796H15.948l-0.311-1.853
		c-0.127-0.767-0.792-1.331-1.569-1.331h-3.582c-0.88,0-1.592,0.712-1.592,1.592c0,0.88,0.711,1.592,1.592,1.592h2.233l2.892,17.355
		l-6.515,6.515c-0.684,0.684-0.684,1.791,0,2.475c0.342,0.342,0.79,0.513,1.237,0.513s0.896-0.171,1.237-0.513l7.243-7.243
		c4.292,0,15.945,0,15.945,0c0.882,0,1.593-0.711,1.593-1.592s-0.711-1.592-1.593-1.592H21.998l1.592-1.592h12.764
		c0.791,0,1.463-0.582,1.574-1.365l1.592-11.143c0.065-0.459-0.072-0.921-0.373-1.269c-0.305-0.349-0.742-0.549-1.203-0.549h-0.028
		l5.322-5.322C43.921,8.554,43.921,7.446,43.237,6.763z M23.619,17.743h4.775v1.387l-1.797,1.797h-2.979V17.743z M25.007,22.518
		l-1.388,1.388v-1.388H25.007z M21.824,25.701h-4.021l-0.529-3.183h4.752V25.5L21.824,25.701z M22.026,17.744v3.183h-4.775
		c-0.084,0-0.161,0.024-0.235,0.048l-0.538-3.231H22.026z M18.378,29.146l-0.043-0.262h0.305L18.378,29.146z M26.773,25.701
		l1.621-1.622v1.622H26.773z M34.971,25.701h-4.986v-3.183h5.44L34.971,25.701z M36.107,17.743l-0.453,3.184h-4.107l3.185-3.184
		H36.107z"/>
</g>
</svg>
