<?xml version="1.0" encoding="utf-8"?>
<!DOCTYPE svg PUBLIC "-//W3C//DTD SVG 1.1//EN" "http://www.w3.org/Graphics/SVG/1.1/DTD/svg11.dtd">
<svg version="1.1"
	 id="Capa_2" xmlns:dc="http://purl.org/dc/elements/1.1/" xmlns:cc="http://creativecommons.org/ns#" xmlns:rdf="http://www.w3.org/1999/02/22-rdf-syntax-ns#" xmlns:svg="http://www.w3.org/2000/svg" xmlns:sodipodi="http://sodipodi.sourceforge.net/DTD/sodipodi-0.dtd" xmlns:inkscape="http://www.inkscape.org/namespaces/inkscape" sodipodi:docname="zoom.svg" inkscape:version="0.48.4 r9939"
	 xmlns="http://www.w3.org/2000/svg" xmlns:xlink="http://www.w3.org/1999/xlink" x="0px" y="0px" width="50px" height="50px"
	 viewBox="0 0 50 50" enable-background="new 0 0 50 50" xml:space="preserve">
<sodipodi:namedview  inkscape:cy="25" inkscape:cx="25" inkscape:zoom="4.72" showgrid="false" guidetolerance="10" gridtolerance="10" objecttolerance="10" bordercolor="#666666" pagecolor="#ffffff" borderopacity="1" id="namedview7" inkscape:current-layer="Capa_2" inkscape:window-maximized="0" inkscape:window-y="184" inkscape:window-x="2194" inkscape:window-height="721" inkscape:pageshadow="2" inkscape:window-width="640" inkscape:pageopacity="0">
	</sodipodi:namedview>
<path fill="#FFFFFF" d="M40.303,36.768l-9.881-9.881C31.732,24.91,32.5,22.544,32.5,20c0-6.893-5.607-12.5-12.5-12.5
	S7.5,13.107,7.5,20S13.107,32.5,20,32.5c2.544,0,4.91-0.768,6.887-2.078l9.881,9.881c0.488,0.488,1.128,0.732,1.768,0.732
	s1.279-0.244,1.768-0.732C41.279,39.326,41.279,37.744,40.303,36.768z M12.5,20c0-4.136,3.364-7.5,7.5-7.5s7.5,3.364,7.5,7.5
	s-3.364,7.5-7.5,7.5S12.5,24.136,12.5,20z"/>
</svg>
