{
    "Currency": "EUR",
    "Shipping": "0",
    "Tax": "0",
    "TaxRate": "0",
    "ItemCount": "1",
    "Items[0][Name]": "IS-I Oruha Wind",
    "Items[0][Quantity]": "5",
    "Items[0][Price]": "10",
    "Action": "shop",
    "site": "intimateshibari"
}