[
    {
        "id": 61,
        "slug": "cdc-about",
        "name": "About",
        "parent": 58
    },
    {
        "id": 62,
        "slug": "cdc-about-am",
        "name": "Alberto Moral",
        "parent": 61
    },
    {
        "id": 53,
        "slug": "angularjs",
        "name": "AngularJs",
        "parent": 50
    },
    {
        "id": 57,
        "slug": "apis-access",
        "name": "APIs access",
        "parent": 50
    },
    {
        "id": 43,
        "slug": "application",
        "name": "Application",
        "parent": 41
    },
    {
        "id": 41,
        "slug": "architecture",
        "name": "Architecture",
        "parent": 86
    },
    {
        "id": 34,
        "slug": "art",
        "name": "Art",
        "parent": 32
    },
    {
        "id": 63,
        "slug": "cdc-about-ac",
        "name": "Aurelio Cachafeiro",
        "parent": 61
    },
    {
        "id": 49,
        "slug": "blog",
        "name": "Blog",
        "parent": 86
    },
    {
        "id": 60,
        "slug": "cdc-blog",
        "name": "Blog",
        "parent": 58
    },
    {
        "id": 83,
        "slug": "intimateshibari-blog",
        "name": "blog",
        "parent": 73
    },
    {
        "id": 58,
        "slug": "color-de-calor",
        "name": "Color de Calor",
        "parent": 0
    },
    {
        "id": 33,
        "slug": "commercial",
        "name": "Commercial",
        "parent": 32
    },
    {
        "id": 37,
        "slug": "design",
        "name": "Design",
        "parent": 86
    },
    {
        "id": 36,
        "slug": "front-end",
        "name": "Front End",
        "parent": 86
    },
    {
        "id": 52,
        "slug": "github",
        "name": "GitHub",
        "parent": 50
    },
    {
        "id": 38,
        "slug": "graphic",
        "name": "Graphic",
        "parent": 37
    },
    {
        "id": 55,
        "slug": "gulp",
        "name": "Gulp",
        "parent": 50
    },
    {
        "id": 54,
        "slug": "html%c2%b7js%c2%b7css",
        "name": "HTML·JS·CSS",
        "parent": 50
    },
    {
        "id": 40,
        "slug": "information",
        "name": "Information",
        "parent": 37
    },
    {
        "id": 42,
        "slug": "information-architecture",
        "name": "Information",
        "parent": 41
    },
    {
        "id": 39,
        "slug": "interface",
        "name": "Interface",
        "parent": 37
    },
    {
        "id": 73,
        "slug": "intimateshibari",
        "name": "Intimate Shibari",
        "parent": 0
    },
    {
        "id": 48,
        "slug": "intranet",
        "name": "Intranet",
        "parent": 32
    },
    {
        "id": 44,
        "slug": "management",
        "name": "Management",
        "parent": 86
    },
    {
        "id": 51,
        "slug": "nodejs",
        "name": "NodeJs",
        "parent": 50
    },
    {
        "id": 86,
        "slug": "poeticsoft",
        "name": "Poeticsoft",
        "parent": 0
    },
    {
        "id": 32,
        "slug": "project",
        "name": "Project",
        "parent": 0
    },
    {
        "id": 45,
        "slug": "project-management",
        "name": "Project",
        "parent": 44
    },
    {
        "id": 35,
        "slug": "proposal",
        "name": "Proposal",
        "parent": 32
    },
    {
        "id": 47,
        "slug": "prototype",
        "name": "Prototype",
        "parent": 36
    },
    {
        "id": 59,
        "slug": "cdc-proyectos",
        "name": "Proyectos",
        "parent": 58
    },
    {
        "id": 56,
        "slug": "sharepoint",
        "name": "SharePoint",
        "parent": 50
    },
    {
        "id": 1,
        "slug": "sin-categoria",
        "name": "Sin categoría",
        "parent": 0
    },
    {
        "id": 46,
        "slug": "team",
        "name": "Team",
        "parent": 44
    },
    {
        "id": 50,
        "slug": "tecnologias",
        "name": "Tecnologias",
        "parent": 0
    }
]