[
    {
        "id": 563,
        "slug": "intimate-shibari-presentation-oruha-wind",
        "title": {
            "rendered": "Presentación de Intimate Shibari &#8211; Oruha Wind"
        },
        "content": {
            "rendered": "<h3 class=\"widget-title\">Lorem ipsum dolor sit amet</h3>\n<p>Lorem ipsum dolor sit amet, consectetur adipiscing elit. Vestibulum ultricies odio non neque maximus malesuada. Integer molestie, nunc ac convallis mollis, justo sapien cursus lacus, non ornare orci eros vel odio. Vestibulum et felis nec nunc suscipit hendrerit. Curabitur sem elit, dapibus eget hendrerit sit amet, ultricies in diam. Vestibulum volutpat scelerisque tellus vitae elementum. Donec ac bibendum turpis. Proin metus justo, condimentum id metus sed, molestie mollis augue. Donec commodo est eget libero aliquam volutpat sed sed urna. Nullam commodo ut sapien non suscipit. Mauris tortor justo, hendrerit quis tincidunt a, vehicula a augue. Duis orci massa, vehicula vitae massa pellentesque, accumsan interdum odio. Donec eros libero, ullamcorper at euismod vitae, maximus sed leo.</p>\n<p>Donec pulvinar in augue quis rutrum. Vivamus sodales elit id tellus fringilla, ut dapibus lacus maximus. Proin at suscipit sem, sed vehicula orci. Duis vulputate nibh sit amet aliquam fringilla. In sagittis dui non orci fringilla pretium. Vestibulum blandit sapien sit amet urna fringilla ultrices. Duis quis gravida est. Morbi bibendum nulla vitae arcu blandit, nec volutpat ligula faucibus. Duis vel est maximus, congue est et, laoreet sem.</p>\n<p>Cras euismod facilisis lacus, in rutrum lacus porta ut. Vestibulum purus velit, finibus quis dui eget, elementum pulvinar mi. Praesent ac ligula sollicitudin, congue enim a, pharetra quam. In fermentum consequat mi vitae sagittis. Sed elementum hendrerit nisi id porta. Duis at ligula vitae velit porttitor congue eget eu lectus. Quisque porta libero vitae commodo bibendum. Nam pharetra facilisis dignissim. Nunc facilisis eleifend porttitor. Fusce velit tellus, commodo id nulla nec, iaculis iaculis turpis. Suspendisse vestibulum pharetra orci, eu maximus augue tincidunt a. Vivamus id euismod eros, vitae fermentum enim. Mauris et arcu erat. Curabitur blandit lorem egestas ex dictum vehicula. In hac habitasse platea dictumst. Cras eu neque ut odio mattis semper.</p>\n<h3 class=\"widget-title\">Suspendisse semper mattis ornare</h3>\n<p>Suspendisse semper mattis ornare. Sed nec tincidunt nisi. Aliquam gravida, magna nec dapibus porta, ipsum ante auctor metus, vitae suscipit neque nulla eu lacus. Fusce tempus arcu efficitur, ullamcorper dolor at, posuere tortor. Mauris fringilla dictum odio, quis maximus erat mollis quis. Pellentesque consequat augue vitae dui convallis, a malesuada ipsum luctus. Donec euismod lacus commodo, ultricies tellus in, vulputate ex. Maecenas blandit lectus in nisi vulputate, a sodales nunc vestibulum. Nullam eu est ligula. Suspendisse fringilla feugiat mi. Morbi vitae blandit nulla, sed molestie lectus. Praesent luctus velit mauris, a aliquet purus venenatis non. Interdum et malesuada fames ac ante ipsum primis in faucibus. Maecenas eu semper nunc. Nam scelerisque pharetra consequat.</p>\n<p>Cras egestas efficitur blandit. Phasellus non accumsan neque. Phasellus et justo orci. Maecenas ipsum urna, varius at nisi feugiat, fringilla lacinia enim. Suspendisse fringilla tellus et sagittis finibus. Praesent ligula dui, egestas at viverra facilisis, vestibulum non ante. Cras eget ante dolor. Etiam aliquam augue at finibus pretium. Proin rutrum, turpis a sagittis vestibulum, lectus neque aliquet sapien, et egestas massa dolor vel augue. Aliquam erat volutpat. Donec nec condimentum mi.</p>\n",
            "protected": false
        },
        "excerpt": {
            "rendered": "<p>Lorem ipsum dolor sit amet Lorem ipsum dolor sit amet, consectetur adipiscing elit. Vestibulum ultricies odio non neque maximus malesuada. Integer molestie, nunc ac convallis mollis, justo sapien&#8230;</p>\n",
            "protected": false
        },
        "featured_media": 0,
        "categories": [
            73
        ]
    }
]